{
	"data": {
		"createClients": {
			"readClients": [
				{
					"id": "16",
					"firstName": "first_name#0",
					"lastName": "last_name#0",
					"address": {
						"id": "1",
						"houseNumber": "765",
						"street": "Thomas St.",
						"zipCode": "7024",
						"city": "Fort Lee"
					}
				},
				{
					"id": "17",
					"firstName": "first_name#1",
					"lastName": "last_name#1",
					"address": {
						"id": "2",
						"houseNumber": "9280",
						"street": "Water Court",
						"zipCode": "37803",
						"city": "Maryville"
					}
				}
			]
		}
	},
	"errors": [
		"error #0",
		"error #1"
	]
}
